<svg xmlns="http://www.w3.org/2000/svg" version="1.1">
  <defs>
    <linearGradient id="g" x1="0%" y1="0%" x2="0%" y2="100%">
      <stop offset="0%" style="stop-color:#f35c3b;"/>
      <stop offset="100%" style="stop-color:#bb462d;"/>
    </linearGradient>
  </defs>
  <rect width="100%" height="100%" style="fill:url(#g)"/>
</svg>